EESchema Schematic File Version 4
EELAYER 30 0
EELAYER END
$Descr B 17000 11000
encoding utf-8
Sheet 1 1
Title ""
Date "15 nov 2012"
Rev ""
Comp ""
Comment1 ""
Comment2 ""
Comment3 ""
Comment4 ""
$EndDescr
$Comp
L power:+5V #PWR01
U 1 1 580C1B61
P 2950 2800
F 0 "#PWR01" H 2950 2650 50  0001 C CNN
F 1 "+5V" H 2950 2940 50  0000 C CNN
F 2 "" H 2950 2800 50  0000 C CNN
F 3 "" H 2950 2800 50  0000 C CNN
	1    2950 2800
	1    0    0    -1  
$EndComp
Wire Wire Line
	2950 2800 2950 2950
Wire Wire Line
	2950 2950 2750 2950
Wire Wire Line
	2950 3050 2750 3050
Connection ~ 2950 2950
$Comp
L power:GND #PWR02
U 1 1 580C1D11
P 2850 5000
F 0 "#PWR02" H 2850 4750 50  0001 C CNN
F 1 "GND" H 2850 4850 50  0000 C CNN
F 2 "" H 2850 5000 50  0000 C CNN
F 3 "" H 2850 5000 50  0000 C CNN
	1    2850 5000
	1    0    0    -1  
$EndComp
Wire Wire Line
	2850 3150 2850 3550
Wire Wire Line
	2850 4550 2750 4550
Wire Wire Line
	2850 4350 2750 4350
Connection ~ 2850 4550
Wire Wire Line
	2850 3850 2750 3850
Connection ~ 2850 4350
Wire Wire Line
	2850 3550 2750 3550
Connection ~ 2850 3850
$Comp
L power:GND #PWR03
U 1 1 580C1E01
P 2150 5000
F 0 "#PWR03" H 2150 4750 50  0001 C CNN
F 1 "GND" H 2150 4850 50  0000 C CNN
F 2 "" H 2150 5000 50  0000 C CNN
F 3 "" H 2150 5000 50  0000 C CNN
	1    2150 5000
	1    0    0    -1  
$EndComp
Wire Wire Line
	2150 4850 2250 4850
Wire Wire Line
	2150 3350 2150 4150
Wire Wire Line
	2150 4150 2250 4150
Connection ~ 2150 4850
Connection ~ 2050 2950
Wire Wire Line
	2050 3750 2250 3750
Wire Wire Line
	2050 2950 2250 2950
Wire Wire Line
	2050 2800 2050 2950
$Comp
L power:+3.3V #PWR04
U 1 1 580C1BC1
P 2050 2800
F 0 "#PWR04" H 2050 2650 50  0001 C CNN
F 1 "+3.3V" H 2050 2940 50  0000 C CNN
F 2 "" H 2050 2800 50  0000 C CNN
F 3 "" H 2050 2800 50  0000 C CNN
	1    2050 2800
	1    0    0    -1  
$EndComp
Wire Wire Line
	2150 3350 2250 3350
Connection ~ 2150 4150
Wire Wire Line
	2250 3450 1350 3450
Wire Wire Line
	1350 3550 2250 3550
Wire Wire Line
	1350 3650 2250 3650
Wire Wire Line
	2250 3850 1350 3850
Wire Wire Line
	1350 3950 2250 3950
Wire Wire Line
	1350 4050 2250 4050
Wire Wire Line
	2250 4550 1350 4550
Wire Wire Line
	1350 4650 2250 4650
Wire Wire Line
	1350 4750 2250 4750
Wire Wire Line
	2750 4650 3700 4650
Wire Wire Line
	2750 4750 3700 4750
Wire Wire Line
	2750 3950 3700 3950
Wire Wire Line
	2750 3650 3700 3650
Wire Wire Line
	2750 3750 3700 3750
Wire Wire Line
	2750 3350 3700 3350
Wire Wire Line
	2750 3450 3700 3450
Wire Wire Line
	2750 3250 3700 3250
Wire Wire Line
	2750 4450 3700 4450
Text Label 1350 3050 0    50   ~ 0
GPIO2(SDA1)
Text Label 1350 3150 0    50   ~ 0
GPIO3(SCL1)
Text Label 1350 3250 0    50   ~ 0
GPIO4(GCLK)
Text Label 1350 3450 0    50   ~ 0
GPIO17(GEN0)
Text Label 1350 3550 0    50   ~ 0
GPIO27(GEN2)
Text Label 1350 3650 0    50   ~ 0
GPIO22(GEN3)
Text Label 1350 3850 0    50   ~ 0
GPIO10(SPI0_MOSI)
Text Label 1350 3950 0    50   ~ 0
GPIO9(SPI0_MISO)
Text Label 1350 4050 0    50   ~ 0
GPIO11(SPI0_SCK)
Text Label 1350 4250 0    50   ~ 0
ID_SD
Text Label 1350 4350 0    50   ~ 0
GPIO5
Text Label 1350 4450 0    50   ~ 0
GPIO6
Text Label 1350 4550 0    50   ~ 0
GPIO13(PWM1)
Text Label 1350 4650 0    50   ~ 0
GPIO19(SPI1_MISO)
Text Label 1350 4750 0    50   ~ 0
GPIO26
Text Label 3700 4750 2    50   ~ 0
GPIO20(SPI1_MOSI)
Text Label 3700 4650 2    50   ~ 0
GPIO16
Text Label 3700 4450 2    50   ~ 0
GPIO12(PWM0)
Text Label 3700 4250 2    50   ~ 0
ID_SC
Text Label 3700 4150 2    50   ~ 0
GPIO7(SPI1_CE_N)
Text Label 3700 4050 2    50   ~ 0
GPIO8(SPI0_CE_N)
Text Label 3700 3950 2    50   ~ 0
GPIO25(GEN6)
Text Label 3700 3750 2    50   ~ 0
GPIO24(GEN5)
Text Label 3700 3650 2    50   ~ 0
GPIO23(GEN4)
Text Label 3700 3450 2    50   ~ 0
GPIO18(GEN1)(PWM0)
Text Label 3700 3350 2    50   ~ 0
GPIO15(RXD0)
Text Label 3700 3250 2    50   ~ 0
GPIO14(TXD0)
Wire Wire Line
	2850 3150 2750 3150
Connection ~ 2850 3550
Text Notes 12650 8800 0    50   ~ 0
ID_SD and ID_SC PINS:\nThese pins are reserved for HAT ID EEPROM.\n\nAt boot time this I2C interface will be\ninterrogated to look for an EEPROM\nthat identifes the attached board and\nallows automagic setup of the GPIOs\n(and optionally, Linux drivers).\n\nDO NOT USE these pins for anything other\nthan attaching an I2C ID EEPROM. Leave\nunconnected if ID EEPROM not required.
$Comp
L lightshowpi_expansion-rescue:Mounting_Hole-Mechanical MK1
U 1 1 5834FB2E
P 15000 8400
F 0 "MK1" H 15100 8446 50  0000 L CNN
F 1 "M2.5" H 15100 8355 50  0000 L CNN
F 2 "MountingHole:MountingHole_2.7mm_M2.5" H 15000 8400 60  0001 C CNN
F 3 "" H 15000 8400 60  0001 C CNN
	1    15000 8400
	1    0    0    -1  
$EndComp
$Comp
L lightshowpi_expansion-rescue:Mounting_Hole-Mechanical MK3
U 1 1 5834FBEF
P 15450 8400
F 0 "MK3" H 15550 8446 50  0000 L CNN
F 1 "M2.5" H 15550 8355 50  0000 L CNN
F 2 "MountingHole:MountingHole_2.7mm_M2.5" H 15450 8400 60  0001 C CNN
F 3 "" H 15450 8400 60  0001 C CNN
	1    15450 8400
	1    0    0    -1  
$EndComp
$Comp
L lightshowpi_expansion-rescue:Mounting_Hole-Mechanical MK2
U 1 1 5834FC19
P 15000 8600
F 0 "MK2" H 15100 8646 50  0000 L CNN
F 1 "M2.5" H 15100 8555 50  0000 L CNN
F 2 "MountingHole:MountingHole_2.7mm_M2.5" H 15000 8600 60  0001 C CNN
F 3 "" H 15000 8600 60  0001 C CNN
	1    15000 8600
	1    0    0    -1  
$EndComp
$Comp
L lightshowpi_expansion-rescue:Mounting_Hole-Mechanical MK4
U 1 1 5834FC4F
P 15450 8600
F 0 "MK4" H 15550 8646 50  0000 L CNN
F 1 "M2.5" H 15550 8555 50  0000 L CNN
F 2 "MountingHole:MountingHole_2.7mm_M2.5" H 15450 8600 60  0001 C CNN
F 3 "" H 15450 8600 60  0001 C CNN
	1    15450 8600
	1    0    0    -1  
$EndComp
Text Notes 15000 8250 0    50   ~ 0
Mounting Holes
$Comp
L Connector_Generic:Conn_02x20_Odd_Even P1
U 1 1 59AD464A
P 2450 3850
F 0 "P1" H 2500 4967 50  0000 C CNN
F 1 "Conn_02x20_Odd_Even" H 2500 4876 50  0000 C CNN
F 2 "Connector_PinSocket_2.54mm:PinSocket_2x20_P2.54mm_Vertical" H -2400 2900 50  0001 C CNN
F 3 "" H -2400 2900 50  0001 C CNN
	1    2450 3850
	1    0    0    -1  
$EndComp
Wire Wire Line
	2750 4850 3700 4850
Text Label 3700 4850 2    50   ~ 0
GPIO21(SPI1_SCK)
Wire Wire Line
	2950 2950 2950 3050
Wire Wire Line
	2850 4550 2850 5000
Wire Wire Line
	2850 4350 2850 4550
Wire Wire Line
	2850 3850 2850 4350
Wire Wire Line
	2150 4850 2150 5000
Wire Wire Line
	2050 2950 2050 3750
Wire Wire Line
	2150 4150 2150 4850
Wire Wire Line
	2850 3550 2850 3850
$Comp
L power:+5V #PWR07
U 1 1 5FD97B7D
P 1600 650
F 0 "#PWR07" H 1600 500 50  0001 C CNN
F 1 "+5V" H 1615 823 50  0000 C CNN
F 2 "" H 1600 650 50  0001 C CNN
F 3 "" H 1600 650 50  0001 C CNN
	1    1600 650 
	1    0    0    -1  
$EndComp
$Comp
L power:GND #PWR06
U 1 1 5FD9802B
P 2100 2150
F 0 "#PWR06" H 2100 1900 50  0001 C CNN
F 1 "GND" H 2105 1977 50  0000 C CNN
F 2 "" H 2100 2150 50  0001 C CNN
F 3 "" H 2100 2150 50  0001 C CNN
	1    2100 2150
	1    0    0    -1  
$EndComp
Wire Wire Line
	2100 2050 2100 2150
$Comp
L Device:R_Small_US R10
U 1 1 5FDAF380
P 13800 850
F 0 "R10" V 13595 850 50  0000 C CNN
F 1 "1K" V 13686 850 50  0000 C CNN
F 2 "Resistor_SMD:R_0805_2012Metric" H 13800 850 50  0001 C CNN
F 3 "~" H 13800 850 50  0001 C CNN
	1    13800 850 
	0    1    1    0   
$EndComp
$Comp
L power:+5V #PWR028
U 1 1 5FDAF388
P 13600 850
F 0 "#PWR028" H 13600 700 50  0001 C CNN
F 1 "+5V" H 13615 1023 50  0000 C CNN
F 2 "" H 13600 850 50  0001 C CNN
F 3 "" H 13600 850 50  0001 C CNN
	1    13600 850 
	1    0    0    -1  
$EndComp
Wire Wire Line
	13700 850  13600 850 
Wire Wire Line
	14550 850  14650 850 
$Comp
L Device:Polyfuse F1
U 1 1 5FDC3A69
P 14800 850
F 0 "F1" V 14575 850 50  0000 C CNN
F 1 "Polyfuse" V 14666 850 50  0000 C CNN
F 2 "Fuse:Fuseholder_Blade_Mini_Keystone_3568" H 14850 650 50  0001 L CNN
F 3 "~" H 14800 850 50  0001 C CNN
	1    14800 850 
	0    1    1    0   
$EndComp
$Comp
L Device:R_Small_US R2
U 1 1 5FDD7445
P 12750 1800
F 0 "R2" V 12545 1800 50  0000 C CNN
F 1 "1k" V 12636 1800 50  0000 C CNN
F 2 "Resistor_SMD:R_0805_2012Metric" H 12750 1800 50  0001 C CNN
F 3 "~" H 12750 1800 50  0001 C CNN
	1    12750 1800
	0    1    1    0   
$EndComp
$Comp
L power:GND #PWR020
U 1 1 5FDD7454
P 13600 2000
F 0 "#PWR020" H 13600 1750 50  0001 C CNN
F 1 "GND" H 13605 1827 50  0000 C CNN
F 2 "" H 13600 2000 50  0001 C CNN
F 3 "" H 13600 2000 50  0001 C CNN
	1    13600 2000
	1    0    0    -1  
$EndComp
$Comp
L power:+5V #PWR012
U 1 1 5FDD745C
P 12550 1750
F 0 "#PWR012" H 12550 1600 50  0001 C CNN
F 1 "+5V" H 12565 1923 50  0000 C CNN
F 2 "" H 12550 1750 50  0001 C CNN
F 3 "" H 12550 1750 50  0001 C CNN
	1    12550 1750
	1    0    0    -1  
$EndComp
Wire Wire Line
	12550 1800 12550 1750
Wire Wire Line
	13550 1800 13950 1800
$Comp
L Device:R_Small_US R9
U 1 1 5FDD7464
P 13750 1600
F 0 "R9" V 13545 1600 50  0000 C CNN
F 1 "1K" V 13636 1600 50  0000 C CNN
F 2 "Resistor_SMD:R_0805_2012Metric" H 13750 1600 50  0001 C CNN
F 3 "~" H 13750 1600 50  0001 C CNN
	1    13750 1600
	0    1    1    0   
$EndComp
$Comp
L power:+5V #PWR027
U 1 1 5FDD746B
P 13550 1600
F 0 "#PWR027" H 13550 1450 50  0001 C CNN
F 1 "+5V" H 13565 1773 50  0000 C CNN
F 2 "" H 13550 1600 50  0001 C CNN
F 3 "" H 13550 1600 50  0001 C CNN
	1    13550 1600
	1    0    0    -1  
$EndComp
Wire Wire Line
	13650 1600 13550 1600
Wire Wire Line
	14550 1600 14650 1600
$Comp
L Device:Polyfuse F2
U 1 1 5FDD7479
P 14800 1600
F 0 "F2" V 14575 1600 50  0000 C CNN
F 1 "Polyfuse" V 14666 1600 50  0000 C CNN
F 2 "Fuse:Fuseholder_Blade_Mini_Keystone_3568" H 14850 1400 50  0001 L CNN
F 3 "~" H 14800 1600 50  0001 C CNN
	1    14800 1600
	0    1    1    0   
$EndComp
$Comp
L Device:R_Small_US R3
U 1 1 5FEA67E5
P 12800 2550
F 0 "R3" V 12595 2550 50  0000 C CNN
F 1 "1k" V 12686 2550 50  0000 C CNN
F 2 "Resistor_SMD:R_0805_2012Metric" H 12800 2550 50  0001 C CNN
F 3 "~" H 12800 2550 50  0001 C CNN
	1    12800 2550
	0    1    1    0   
$EndComp
Wire Wire Line
	12950 2550 12900 2550
$Comp
L power:GND #PWR021
U 1 1 5FEA67F4
P 13600 2750
F 0 "#PWR021" H 13600 2500 50  0001 C CNN
F 1 "GND" H 13700 2650 50  0000 C CNN
F 2 "" H 13600 2750 50  0001 C CNN
F 3 "" H 13600 2750 50  0001 C CNN
	1    13600 2750
	1    0    0    -1  
$EndComp
$Comp
L power:+5V #PWR013
U 1 1 5FEA67FC
P 12600 2550
F 0 "#PWR013" H 12600 2400 50  0001 C CNN
F 1 "+5V" H 12615 2723 50  0000 C CNN
F 2 "" H 12600 2550 50  0001 C CNN
F 3 "" H 12600 2550 50  0001 C CNN
	1    12600 2550
	1    0    0    -1  
$EndComp
Wire Wire Line
	12700 2550 12600 2550
$Comp
L Device:R_Small_US R11
U 1 1 5FEA6804
P 13750 2450
F 0 "R11" V 13545 2450 50  0000 C CNN
F 1 "1K" V 13636 2450 50  0000 C CNN
F 2 "Resistor_SMD:R_0805_2012Metric" H 13750 2450 50  0001 C CNN
F 3 "~" H 13750 2450 50  0001 C CNN
	1    13750 2450
	0    1    1    0   
$EndComp
$Comp
L power:+5V #PWR029
U 1 1 5FEA680B
P 13550 2450
F 0 "#PWR029" H 13550 2300 50  0001 C CNN
F 1 "+5V" H 13565 2623 50  0000 C CNN
F 2 "" H 13550 2450 50  0001 C CNN
F 3 "" H 13550 2450 50  0001 C CNN
	1    13550 2450
	1    0    0    -1  
$EndComp
Wire Wire Line
	13650 2450 13550 2450
Wire Wire Line
	13850 2450 13950 2450
Wire Wire Line
	14550 2450 14650 2450
$Comp
L Device:Polyfuse F3
U 1 1 5FEA6817
P 14800 2450
F 0 "F3" V 14575 2450 50  0000 C CNN
F 1 "Polyfuse" V 14666 2450 50  0000 C CNN
F 2 "Fuse:Fuseholder_Blade_Mini_Keystone_3568" H 14850 2250 50  0001 L CNN
F 3 "~" H 14800 2450 50  0001 C CNN
	1    14800 2450
	0    1    1    0   
$EndComp
$Comp
L Device:R_Small_US R4
U 1 1 5FEA6824
P 12750 3300
F 0 "R4" V 12545 3300 50  0000 C CNN
F 1 "1k" V 12636 3300 50  0000 C CNN
F 2 "Resistor_SMD:R_0805_2012Metric" H 12750 3300 50  0001 C CNN
F 3 "~" H 12750 3300 50  0001 C CNN
	1    12750 3300
	0    1    1    0   
$EndComp
Wire Wire Line
	12950 3300 12850 3300
$Comp
L power:GND #PWR022
U 1 1 5FEA6833
P 13600 3500
F 0 "#PWR022" H 13600 3250 50  0001 C CNN
F 1 "GND" H 13750 3400 50  0000 C CNN
F 2 "" H 13600 3500 50  0001 C CNN
F 3 "" H 13600 3500 50  0001 C CNN
	1    13600 3500
	1    0    0    -1  
$EndComp
$Comp
L power:+5V #PWR014
U 1 1 5FEA683B
P 12550 3300
F 0 "#PWR014" H 12550 3150 50  0001 C CNN
F 1 "+5V" H 12565 3473 50  0000 C CNN
F 2 "" H 12550 3300 50  0001 C CNN
F 3 "" H 12550 3300 50  0001 C CNN
	1    12550 3300
	1    0    0    -1  
$EndComp
Wire Wire Line
	12650 3300 12550 3300
Wire Wire Line
	13550 3400 13950 3400
$Comp
L Device:R_Small_US R12
U 1 1 5FEA6843
P 13750 3200
F 0 "R12" V 13545 3200 50  0000 C CNN
F 1 "1K" V 13636 3200 50  0000 C CNN
F 2 "Resistor_SMD:R_0805_2012Metric" H 13750 3200 50  0001 C CNN
F 3 "~" H 13750 3200 50  0001 C CNN
	1    13750 3200
	0    1    1    0   
$EndComp
$Comp
L power:+5V #PWR030
U 1 1 5FEA684A
P 13550 3200
F 0 "#PWR030" H 13550 3050 50  0001 C CNN
F 1 "+5V" H 13565 3373 50  0000 C CNN
F 2 "" H 13550 3200 50  0001 C CNN
F 3 "" H 13550 3200 50  0001 C CNN
	1    13550 3200
	1    0    0    -1  
$EndComp
Wire Wire Line
	13650 3200 13550 3200
Wire Wire Line
	13850 3200 13950 3200
Wire Wire Line
	14550 3200 14700 3200
$Comp
L Device:Polyfuse F4
U 1 1 5FEA6854
P 14850 3200
F 0 "F4" V 14625 3200 50  0000 C CNN
F 1 "Polyfuse" V 14716 3200 50  0000 C CNN
F 2 "Fuse:Fuseholder_Blade_Mini_Keystone_3568" H 14900 3000 50  0001 L CNN
F 3 "~" H 14850 3200 50  0001 C CNN
	1    14850 3200
	0    1    1    0   
$EndComp
$Comp
L Device:R_Small_US R5
U 1 1 5FEFB4FB
P 12750 4000
F 0 "R5" V 12545 4000 50  0000 C CNN
F 1 "1k" V 12636 4000 50  0000 C CNN
F 2 "Resistor_SMD:R_0805_2012Metric" H 12750 4000 50  0001 C CNN
F 3 "~" H 12750 4000 50  0001 C CNN
	1    12750 4000
	0    1    1    0   
$EndComp
Wire Wire Line
	12950 4000 12850 4000
$Comp
L power:GND #PWR023
U 1 1 5FEFB50A
P 13600 4200
F 0 "#PWR023" H 13600 3950 50  0001 C CNN
F 1 "GND" H 13700 4100 50  0000 C CNN
F 2 "" H 13600 4200 50  0001 C CNN
F 3 "" H 13600 4200 50  0001 C CNN
	1    13600 4200
	1    0    0    -1  
$EndComp
$Comp
L power:+5V #PWR015
U 1 1 5FEFB512
P 12550 4000
F 0 "#PWR015" H 12550 3850 50  0001 C CNN
F 1 "+5V" H 12565 4173 50  0000 C CNN
F 2 "" H 12550 4000 50  0001 C CNN
F 3 "" H 12550 4000 50  0001 C CNN
	1    12550 4000
	1    0    0    -1  
$EndComp
Wire Wire Line
	12650 4000 12550 4000
Wire Wire Line
	13550 4100 13950 4100
$Comp
L Device:R_Small_US R13
U 1 1 5FEFB51A
P 13800 3900
F 0 "R13" V 13595 3900 50  0000 C CNN
F 1 "1K" V 13686 3900 50  0000 C CNN
F 2 "Resistor_SMD:R_0805_2012Metric" H 13800 3900 50  0001 C CNN
F 3 "~" H 13800 3900 50  0001 C CNN
	1    13800 3900
	0    1    1    0   
$EndComp
$Comp
L power:+5V #PWR031
U 1 1 5FEFB521
P 13600 3900
F 0 "#PWR031" H 13600 3750 50  0001 C CNN
F 1 "+5V" H 13615 4073 50  0000 C CNN
F 2 "" H 13600 3900 50  0001 C CNN
F 3 "" H 13600 3900 50  0001 C CNN
	1    13600 3900
	1    0    0    -1  
$EndComp
Wire Wire Line
	13700 3900 13600 3900
Wire Wire Line
	13900 3900 13950 3900
Wire Wire Line
	14550 3900 14700 3900
$Comp
L Device:Polyfuse F5
U 1 1 5FEFB52D
P 14850 3900
F 0 "F5" V 14625 3900 50  0000 C CNN
F 1 "Polyfuse" V 14716 3900 50  0000 C CNN
F 2 "Fuse:Fuseholder_Blade_Mini_Keystone_3568" H 14900 3700 50  0001 L CNN
F 3 "~" H 14850 3900 50  0001 C CNN
	1    14850 3900
	0    1    1    0   
$EndComp
$Comp
L Device:R_Small_US R6
U 1 1 5FEFB53A
P 12800 4700
F 0 "R6" V 12595 4700 50  0000 C CNN
F 1 "1k" V 12686 4700 50  0000 C CNN
F 2 "Resistor_SMD:R_0805_2012Metric" H 12800 4700 50  0001 C CNN
F 3 "~" H 12800 4700 50  0001 C CNN
	1    12800 4700
	0    1    1    0   
$EndComp
Wire Wire Line
	12950 4700 12900 4700
$Comp
L power:GND #PWR024
U 1 1 5FEFB549
P 13600 4900
F 0 "#PWR024" H 13600 4650 50  0001 C CNN
F 1 "GND" H 13700 4800 50  0000 C CNN
F 2 "" H 13600 4900 50  0001 C CNN
F 3 "" H 13600 4900 50  0001 C CNN
	1    13600 4900
	1    0    0    -1  
$EndComp
$Comp
L power:+5V #PWR016
U 1 1 5FEFB551
P 12600 4700
F 0 "#PWR016" H 12600 4550 50  0001 C CNN
F 1 "+5V" H 12615 4873 50  0000 C CNN
F 2 "" H 12600 4700 50  0001 C CNN
F 3 "" H 12600 4700 50  0001 C CNN
	1    12600 4700
	1    0    0    -1  
$EndComp
Wire Wire Line
	12700 4700 12600 4700
Wire Wire Line
	13550 4800 13950 4800
$Comp
L Device:R_Small_US R14
U 1 1 5FEFB559
P 13800 4600
F 0 "R14" V 13595 4600 50  0000 C CNN
F 1 "1K" V 13686 4600 50  0000 C CNN
F 2 "Resistor_SMD:R_0805_2012Metric" H 13800 4600 50  0001 C CNN
F 3 "~" H 13800 4600 50  0001 C CNN
	1    13800 4600
	0    1    1    0   
$EndComp
$Comp
L power:+5V #PWR032
U 1 1 5FEFB560
P 13600 4600
F 0 "#PWR032" H 13600 4450 50  0001 C CNN
F 1 "+5V" H 13615 4773 50  0000 C CNN
F 2 "" H 13600 4600 50  0001 C CNN
F 3 "" H 13600 4600 50  0001 C CNN
	1    13600 4600
	1    0    0    -1  
$EndComp
Wire Wire Line
	13700 4600 13600 4600
Wire Wire Line
	13900 4600 13950 4600
Wire Wire Line
	14550 4600 14700 4600
$Comp
L Device:Polyfuse F6
U 1 1 5FEFB56A
P 14850 4600
F 0 "F6" V 14625 4600 50  0000 C CNN
F 1 "Polyfuse" V 14716 4600 50  0000 C CNN
F 2 "Fuse:Fuseholder_Blade_Mini_Keystone_3568" H 14900 4400 50  0001 L CNN
F 3 "~" H 14850 4600 50  0001 C CNN
	1    14850 4600
	0    1    1    0   
$EndComp
$Comp
L Device:R_Small_US R7
U 1 1 5FEFB577
P 12800 5400
F 0 "R7" V 12595 5400 50  0000 C CNN
F 1 "1k" V 12686 5400 50  0000 C CNN
F 2 "Resistor_SMD:R_0805_2012Metric" H 12800 5400 50  0001 C CNN
F 3 "~" H 12800 5400 50  0001 C CNN
	1    12800 5400
	0    1    1    0   
$EndComp
Wire Wire Line
	12950 5400 12900 5400
$Comp
L power:GND #PWR025
U 1 1 5FEFB586
P 13600 5650
F 0 "#PWR025" H 13600 5400 50  0001 C CNN
F 1 "GND" H 13700 5600 50  0000 C CNN
F 2 "" H 13600 5650 50  0001 C CNN
F 3 "" H 13600 5650 50  0001 C CNN
	1    13600 5650
	1    0    0    -1  
$EndComp
Wire Wire Line
	13550 5600 13600 5600
Wire Wire Line
	13600 5600 13600 5650
$Comp
L power:+5V #PWR017
U 1 1 5FEFB58E
P 12650 5400
F 0 "#PWR017" H 12650 5250 50  0001 C CNN
F 1 "+5V" H 12665 5573 50  0000 C CNN
F 2 "" H 12650 5400 50  0001 C CNN
F 3 "" H 12650 5400 50  0001 C CNN
	1    12650 5400
	1    0    0    -1  
$EndComp
Wire Wire Line
	12700 5400 12650 5400
Wire Wire Line
	13550 5500 13950 5500
$Comp
L Device:R_Small_US R15
U 1 1 5FEFB596
P 13800 5300
F 0 "R15" V 13595 5300 50  0000 C CNN
F 1 "1K" V 13686 5300 50  0000 C CNN
F 2 "Resistor_SMD:R_0805_2012Metric" H 13800 5300 50  0001 C CNN
F 3 "~" H 13800 5300 50  0001 C CNN
	1    13800 5300
	0    1    1    0   
$EndComp
$Comp
L power:+5V #PWR033
U 1 1 5FEFB59D
P 13600 5300
F 0 "#PWR033" H 13600 5150 50  0001 C CNN
F 1 "+5V" H 13615 5473 50  0000 C CNN
F 2 "" H 13600 5300 50  0001 C CNN
F 3 "" H 13600 5300 50  0001 C CNN
	1    13600 5300
	1    0    0    -1  
$EndComp
Wire Wire Line
	13700 5300 13600 5300
Wire Wire Line
	13900 5300 13950 5300
Wire Wire Line
	14550 5300 14700 5300
$Comp
L Device:Polyfuse F7
U 1 1 5FEFB5A9
P 14850 5300
F 0 "F7" V 14625 5300 50  0000 C CNN
F 1 "Polyfuse" V 14716 5300 50  0000 C CNN
F 2 "Fuse:Fuseholder_Blade_Mini_Keystone_3568" H 14900 5100 50  0001 L CNN
F 3 "~" H 14850 5300 50  0001 C CNN
	1    14850 5300
	0    1    1    0   
$EndComp
$Comp
L Device:R_Small_US R8
U 1 1 5FEFB5B6
P 12800 6100
F 0 "R8" V 12595 6100 50  0000 C CNN
F 1 "1k" V 12686 6100 50  0000 C CNN
F 2 "Resistor_SMD:R_0805_2012Metric" H 12800 6100 50  0001 C CNN
F 3 "~" H 12800 6100 50  0001 C CNN
	1    12800 6100
	0    1    1    0   
$EndComp
Wire Wire Line
	12950 6100 12900 6100
$Comp
L power:GND #PWR026
U 1 1 5FEFB5C5
P 13600 6350
F 0 "#PWR026" H 13600 6100 50  0001 C CNN
F 1 "GND" H 13605 6177 50  0000 C CNN
F 2 "" H 13600 6350 50  0001 C CNN
F 3 "" H 13600 6350 50  0001 C CNN
	1    13600 6350
	1    0    0    -1  
$EndComp
Wire Wire Line
	13550 6300 13600 6300
Wire Wire Line
	13600 6300 13600 6350
$Comp
L power:+5V #PWR018
U 1 1 5FEFB5CD
P 12650 6100
F 0 "#PWR018" H 12650 5950 50  0001 C CNN
F 1 "+5V" H 12665 6273 50  0000 C CNN
F 2 "" H 12650 6100 50  0001 C CNN
F 3 "" H 12650 6100 50  0001 C CNN
	1    12650 6100
	1    0    0    -1  
$EndComp
Wire Wire Line
	12700 6100 12650 6100
Wire Wire Line
	14550 6000 14700 6000
$Comp
L Device:Polyfuse F8
U 1 1 5FEFB5E6
P 14850 6000
F 0 "F8" V 14625 6000 50  0000 C CNN
F 1 "Polyfuse" V 14716 6000 50  0000 C CNN
F 2 "Fuse:Fuseholder_Blade_Mini_Keystone_3568" H 14900 5800 50  0001 L CNN
F 3 "~" H 14850 6000 50  0001 C CNN
	1    14850 6000
	0    1    1    0   
$EndComp
Wire Wire Line
	12850 1800 12950 1800
Wire Wire Line
	12650 1800 12550 1800
Wire Wire Line
	13550 2000 13600 2000
Wire Wire Line
	13850 1600 13950 1600
Wire Wire Line
	13900 850  13950 850 
$Comp
L power:GND #PWR09
U 1 1 602C3969
P 3600 10000
F 0 "#PWR09" H 3600 9750 50  0001 C CNN
F 1 "GND" H 3700 9900 50  0000 C CNN
F 2 "" H 3600 10000 50  0001 C CNN
F 3 "" H 3600 10000 50  0001 C CNN
	1    3600 10000
	1    0    0    -1  
$EndComp
$Comp
L power:+5V #PWR010
U 1 1 602CDABB
P 3700 8450
F 0 "#PWR010" H 3700 8300 50  0001 C CNN
F 1 "+5V" H 3750 8600 50  0000 C CNN
F 2 "" H 3700 8450 50  0001 C CNN
F 3 "" H 3700 8450 50  0001 C CNN
	1    3700 8450
	1    0    0    -1  
$EndComp
$Comp
L power:+3.3V #PWR08
U 1 1 602D0670
P 3500 8500
F 0 "#PWR08" H 3500 8350 50  0001 C CNN
F 1 "+3.3V" H 3450 8650 50  0000 C CNN
F 2 "" H 3500 8500 50  0001 C CNN
F 3 "" H 3500 8500 50  0001 C CNN
	1    3500 8500
	1    0    0    -1  
$EndComp
Wire Wire Line
	9800 1250 9800 2000
Wire Wire Line
	9800 2000 10950 2000
Wire Wire Line
	9700 1350 9700 2750
Wire Wire Line
	9600 3500 9600 1450
Wire Wire Line
	9500 4200 9500 1550
Wire Wire Line
	9400 4900 9400 1650
Wire Wire Line
	9300 1750 9300 5600
Wire Wire Line
	9300 5600 11000 5600
Wire Wire Line
	12950 6300 10950 6300
Wire Wire Line
	9200 6300 9200 1850
$Comp
L Connector_Generic:Conn_01x16 J5
U 1 1 60311643
P 16050 3800
F 0 "J5" H 16130 3792 50  0000 L CNN
F 1 "Conn_01x16" H 16130 3701 50  0000 L CNN
F 2 "TerminalBlock_Phoenix:TerminalBlock_Phoenix_PT-1,5-16-3.5-H_1x16_P3.50mm_Horizontal" H 16050 3800 50  0001 C CNN
F 3 "~" H 16050 3800 50  0001 C CNN
	1    16050 3800
	1    0    0    -1  
$EndComp
Wire Wire Line
	15850 3100 15800 3100
Wire Wire Line
	15800 3100 15800 850 
Wire Wire Line
	15800 850  14950 850 
Wire Wire Line
	14550 1050 15700 1050
Wire Wire Line
	15700 1050 15700 3200
Wire Wire Line
	15700 3200 15850 3200
Wire Wire Line
	14950 1600 15600 1600
Wire Wire Line
	15600 1600 15600 3300
Wire Wire Line
	15600 3300 15850 3300
Wire Wire Line
	14950 2450 15400 2450
Wire Wire Line
	15400 2450 15400 3500
Wire Wire Line
	15400 3500 15850 3500
Wire Wire Line
	15000 3200 15200 3200
Wire Wire Line
	15200 3200 15200 3700
Wire Wire Line
	15200 3700 15850 3700
Wire Wire Line
	15850 3900 15000 3900
Wire Wire Line
	15000 4600 15300 4600
Wire Wire Line
	15300 4600 15300 4100
Wire Wire Line
	15300 4100 15850 4100
Wire Wire Line
	15850 4300 15500 4300
Wire Wire Line
	15500 4300 15500 5300
Wire Wire Line
	15500 5300 15000 5300
Wire Wire Line
	15700 6000 15700 4500
Wire Wire Line
	15700 4500 15850 4500
Wire Wire Line
	15000 6000 15700 6000
Wire Wire Line
	14550 6200 15800 6200
Wire Wire Line
	15800 6200 15800 4600
Wire Wire Line
	15800 4600 15850 4600
Wire Wire Line
	14550 5500 15600 5500
Wire Wire Line
	15600 5500 15600 4400
Wire Wire Line
	15600 4400 15850 4400
Wire Wire Line
	15850 4200 15400 4200
Wire Wire Line
	15400 4200 15400 4800
Wire Wire Line
	15400 4800 14550 4800
Wire Wire Line
	14550 4100 15200 4100
Wire Wire Line
	15200 4100 15200 4000
Wire Wire Line
	15200 4000 15850 4000
Wire Wire Line
	15850 3800 15100 3800
Wire Wire Line
	15100 3800 15100 3400
Wire Wire Line
	15100 3400 14550 3400
Wire Wire Line
	14550 2650 15300 2650
Wire Wire Line
	15300 2650 15300 3600
Wire Wire Line
	15300 3600 15850 3600
Wire Wire Line
	15850 3400 15500 3400
Wire Wire Line
	15500 3400 15500 1800
Wire Wire Line
	15500 1800 14550 1800
$Comp
L power:GND #PWR05
U 1 1 6055CE51
P 2700 8500
F 0 "#PWR05" H 2700 8250 50  0001 C CNN
F 1 "GND" H 2800 8400 50  0000 C CNN
F 2 "" H 2700 8500 50  0001 C CNN
F 3 "" H 2700 8500 50  0001 C CNN
	1    2700 8500
	1    0    0    -1  
$EndComp
$Comp
L power:+3.3V #PWR0101
U 1 1 60568B26
P 2700 7900
F 0 "#PWR0101" H 2700 7750 50  0001 C CNN
F 1 "+3.3V" H 2800 7950 50  0000 C CNN
F 2 "" H 2700 7900 50  0001 C CNN
F 3 "" H 2700 7900 50  0001 C CNN
	1    2700 7900
	1    0    0    -1  
$EndComp
$Comp
L Device:Antenna AE1
U 1 1 6073A370
P 4200 4150
F 0 "AE1" V 4154 4280 50  0000 L CNN
F 1 "Antenna" V 4245 4280 50  0000 L CNN
F 2 "RF_Antenna:Pulse_W3011" H 4200 4150 50  0001 C CNN
F 3 "~" H 4200 4150 50  0001 C CNN
	1    4200 4150
	0    1    1    0   
$EndComp
$Comp
L Logic_LevelTranslator:SN74AVC8T245PW U1
U 1 1 5FD928E3
P 3600 9200
F 0 "U1" H 3600 9300 50  0000 C CNN
F 1 "SN74AVC8T245PW" H 4100 9750 50  0001 C CNN
F 2 "Package_SO:TSSOP-24_4.4x7.8mm_P0.65mm" H 4500 8550 50  0001 C CNN
F 3 "https://www.ti.com/lit/ds/symlink/sn74avc8t245.pdf" H 3550 8950 50  0001 C CNN
	1    3600 9200
	1    0    0    -1  
$EndComp
Wire Wire Line
	3500 8500 3500 8600
Wire Wire Line
	3600 8600 3600 8500
Wire Wire Line
	3600 8500 3700 8500
Connection ~ 3700 8500
Wire Wire Line
	3700 8500 3700 8600
$Comp
L Jumper:Jumper_3_Open JP1
U 1 1 5FEE1B06
P 2700 8200
F 0 "JP1" V 2654 8287 50  0000 L CNN
F 1 "Jumper_3_Open" V 2600 7600 50  0000 L CNN
F 2 "Jumper:SolderJumper-3_P1.3mm_Open_Pad1.0x1.5mm" H 2700 8200 50  0001 C CNN
F 3 "~" H 2700 8200 50  0001 C CNN
	1    2700 8200
	0    -1   1    0   
$EndComp
Wire Wire Line
	3000 8200 3000 8350
Wire Wire Line
	3000 8800 3100 8800
Wire Wire Line
	2700 7950 2700 7900
Wire Wire Line
	2700 8500 2700 8450
$Comp
L Connector:Conn_01x10_Female J2
U 1 1 5FF9ED2E
P 850 9300
F 0 "J2" H 742 9885 50  0000 C CNN
F 1 "Conn_01x10_Female" H 600 8750 50  0000 C CNN
F 2 "TerminalBlock_Phoenix:TerminalBlock_Phoenix_PT-1,5-10-3.5-H_1x10_P3.50mm_Horizontal" H 850 9300 50  0001 C CNN
F 3 "~" H 850 9300 50  0001 C CNN
	1    850  9300
	-1   0    0    -1  
$EndComp
$Comp
L Connector:Conn_01x10_Female J4
U 1 1 6001D66F
P 5050 9300
F 0 "J4" H 5000 9800 50  0000 C CNN
F 1 "Conn_01x10_Female" H 4800 8750 50  0000 C CNN
F 2 "TerminalBlock_Phoenix:TerminalBlock_Phoenix_PT-1,5-10-3.5-H_1x10_P3.50mm_Horizontal" H 5050 9300 50  0001 C CNN
F 3 "~" H 5050 9300 50  0001 C CNN
	1    5050 9300
	1    0    0    -1  
$EndComp
Wire Wire Line
	3000 8200 2850 8200
$Comp
L Device:R_Small_US R25
U 1 1 60303794
P 3000 8450
F 0 "R25" V 2795 8450 50  0000 C CNN
F 1 "1k" V 2886 8450 50  0000 C CNN
F 2 "Resistor_SMD:R_0805_2012Metric" H 3000 8450 50  0001 C CNN
F 3 "~" H 3000 8450 50  0001 C CNN
	1    3000 8450
	-1   0    0    1   
$EndComp
Wire Wire Line
	3000 8550 3000 8800
$Comp
L Device:R_Small_US R26
U 1 1 6047C76A
P 4250 8650
F 0 "R26" V 4045 8650 50  0000 C CNN
F 1 "1k" V 4136 8650 50  0000 C CNN
F 2 "Resistor_SMD:R_0805_2012Metric" H 4250 8650 50  0001 C CNN
F 3 "~" H 4250 8650 50  0001 C CNN
	1    4250 8650
	-1   0    0    1   
$EndComp
Wire Wire Line
	4100 8800 4250 8800
Wire Wire Line
	4250 8800 4250 8750
Wire Wire Line
	4250 8550 4250 8500
Wire Wire Line
	4250 8500 3700 8500
$Comp
L Device:R_Small_US R19
U 1 1 604F4ED4
P 1700 8400
F 0 "R19" H 1650 8500 50  0000 C CNN
F 1 "1k" H 1750 8350 50  0000 C CNN
F 2 "Resistor_SMD:R_0805_2012Metric" H 1700 8400 50  0001 C CNN
F 3 "~" H 1700 8400 50  0001 C CNN
	1    1700 8400
	-1   0    0    1   
$EndComp
$Comp
L Device:R_Small_US R20
U 1 1 604F6EAD
P 1850 8400
F 0 "R20" H 1800 8500 50  0000 C CNN
F 1 "1k" H 1900 8350 50  0000 C CNN
F 2 "Resistor_SMD:R_0805_2012Metric" H 1850 8400 50  0001 C CNN
F 3 "~" H 1850 8400 50  0001 C CNN
	1    1850 8400
	-1   0    0    1   
$EndComp
$Comp
L Device:R_Small_US R21
U 1 1 604F72FD
P 2000 8400
F 0 "R21" H 1950 8500 50  0000 C CNN
F 1 "1k" H 2050 8350 50  0000 C CNN
F 2 "Resistor_SMD:R_0805_2012Metric" H 2000 8400 50  0001 C CNN
F 3 "~" H 2000 8400 50  0001 C CNN
	1    2000 8400
	-1   0    0    1   
$EndComp
$Comp
L Device:R_Small_US R22
U 1 1 604F7654
P 2150 8400
F 0 "R22" H 2100 8500 50  0000 C CNN
F 1 "1k" H 2200 8350 50  0000 C CNN
F 2 "Resistor_SMD:R_0805_2012Metric" H 2150 8400 50  0001 C CNN
F 3 "~" H 2150 8400 50  0001 C CNN
	1    2150 8400
	-1   0    0    1   
$EndComp
$Comp
L Device:R_Small_US R23
U 1 1 604F7AC5
P 2300 8400
F 0 "R23" H 2250 8500 50  0000 C CNN
F 1 "1k" H 2350 8350 50  0000 C CNN
F 2 "Resistor_SMD:R_0805_2012Metric" H 2300 8400 50  0001 C CNN
F 3 "~" H 2300 8400 50  0001 C CNN
	1    2300 8400
	-1   0    0    1   
$EndComp
$Comp
L Device:R_Small_US R24
U 1 1 604F7EFF
P 2450 8400
F 0 "R24" H 2400 8500 50  0000 C CNN
F 1 "1k" H 2500 8350 50  0000 C CNN
F 2 "Resistor_SMD:R_0805_2012Metric" H 2450 8400 50  0001 C CNN
F 3 "~" H 2450 8400 50  0001 C CNN
	1    2450 8400
	-1   0    0    1   
$EndComp
Wire Wire Line
	13900 6000 13950 6000
Wire Wire Line
	13700 6000 13600 6000
$Comp
L power:+5V #PWR034
U 1 1 5FEFB5DC
P 13600 6000
F 0 "#PWR034" H 13600 5850 50  0001 C CNN
F 1 "+5V" H 13615 6173 50  0000 C CNN
F 2 "" H 13600 6000 50  0001 C CNN
F 3 "" H 13600 6000 50  0001 C CNN
	1    13600 6000
	1    0    0    -1  
$EndComp
$Comp
L Device:R_Small_US R16
U 1 1 5FEFB5D5
P 13800 6000
F 0 "R16" V 13595 6000 50  0000 C CNN
F 1 "1K" V 13686 6000 50  0000 C CNN
F 2 "Resistor_SMD:R_0805_2012Metric" H 13800 6000 50  0001 C CNN
F 3 "~" H 13800 6000 50  0001 C CNN
	1    13800 6000
	0    1    1    0   
$EndComp
Wire Wire Line
	13550 1050 13950 1050
Wire Wire Line
	13550 2750 13600 2750
Wire Wire Line
	13550 3500 13600 3500
Wire Wire Line
	13550 4200 13600 4200
Wire Wire Line
	13550 4900 13600 4900
Text GLabel 10900 1000 0    50   Input ~ 0
RLY_1
Text GLabel 10900 1850 0    50   Input ~ 0
RLY_2
Text GLabel 10950 2650 0    50   Input ~ 0
RLY_3
Text GLabel 10950 3400 0    50   Input ~ 0
RLY_4
Text GLabel 10950 4100 0    50   Input ~ 0
RLY_5
Text GLabel 10900 4750 0    50   Input ~ 0
RLY_6
Text GLabel 10900 5450 0    50   Input ~ 0
RLY_7
Text GLabel 10850 6150 0    50   Input ~ 0
RLY_8
Wire Wire Line
	9700 2750 11000 2750
Wire Wire Line
	9600 3500 11000 3500
Wire Wire Line
	9500 4200 11000 4200
Wire Wire Line
	9400 4900 11000 4900
Text GLabel 1000 4050 1    50   Input ~ 0
RLY_1
Text GLabel 4150 4300 2    50   Input ~ 0
RLY_2
Text GLabel 1150 2600 1    50   Input ~ 0
RLY_3
Text GLabel 1050 2600 1    50   Input ~ 0
RLY_4
Text GLabel 5550 2400 1    50   Input ~ 0
RLY_5
Text GLabel 5450 2400 1    50   Input ~ 0
RLY_6
Text GLabel 5350 2400 1    50   Input ~ 0
RLY_7
Text GLabel 8800 3400 1    50   Input ~ 0
RLY_8
Wire Wire Line
	3700 8450 3700 8500
Wire Wire Line
	1050 9000 1300 9000
Wire Wire Line
	1050 9100 2300 9100
Wire Wire Line
	1050 9200 2150 9200
Wire Wire Line
	1050 9300 2000 9300
Wire Wire Line
	1050 9400 1850 9400
Wire Wire Line
	1050 9600 1550 9600
Wire Wire Line
	1050 9700 1400 9700
Wire Wire Line
	3600 10000 3600 9950
Wire Wire Line
	1050 9800 2800 9800
Wire Wire Line
	2450 8500 2450 9000
Connection ~ 2450 9000
Wire Wire Line
	2450 9000 3100 9000
Wire Wire Line
	2300 8500 2300 9100
Connection ~ 2300 9100
Wire Wire Line
	2300 9100 3100 9100
Wire Wire Line
	2150 8500 2150 9200
Connection ~ 2150 9200
Wire Wire Line
	2150 9200 3100 9200
Wire Wire Line
	2000 8500 2000 9300
Connection ~ 2000 9300
Wire Wire Line
	2000 9300 3100 9300
Wire Wire Line
	1050 9500 1700 9500
Wire Wire Line
	1850 8500 1850 9400
Connection ~ 1850 9400
Wire Wire Line
	1850 9400 3100 9400
Wire Wire Line
	1700 8500 1700 9500
Connection ~ 1700 9500
Wire Wire Line
	1700 9500 3100 9500
$Comp
L Device:R_Small_US R18
U 1 1 612C6460
P 1550 8400
F 0 "R18" H 1500 8500 50  0000 C CNN
F 1 "1k" H 1600 8350 50  0000 C CNN
F 2 "Resistor_SMD:R_0805_2012Metric" H 1550 8400 50  0001 C CNN
F 3 "~" H 1550 8400 50  0001 C CNN
	1    1550 8400
	-1   0    0    1   
$EndComp
Wire Wire Line
	1550 8500 1550 9600
Connection ~ 1550 9600
Wire Wire Line
	1550 9600 3100 9600
$Comp
L Device:R_Small_US R17
U 1 1 612D9F4B
P 1400 8400
F 0 "R17" H 1350 8500 50  0000 C CNN
F 1 "1k" H 1450 8350 50  0000 C CNN
F 2 "Resistor_SMD:R_0805_2012Metric" H 1400 8400 50  0001 C CNN
F 3 "~" H 1400 8400 50  0001 C CNN
	1    1400 8400
	-1   0    0    1   
$EndComp
Wire Wire Line
	1400 8500 1400 9700
Connection ~ 1400 9700
Wire Wire Line
	1400 9700 3100 9700
$Comp
L power:+3.3V #PWR036
U 1 1 612EF26C
P 1900 8150
F 0 "#PWR036" H 1900 8000 50  0001 C CNN
F 1 "+3.3V" H 1850 8300 50  0000 C CNN
F 2 "" H 1900 8150 50  0001 C CNN
F 3 "" H 1900 8150 50  0001 C CNN
	1    1900 8150
	1    0    0    -1  
$EndComp
Wire Wire Line
	1400 8300 1400 8250
Wire Wire Line
	1400 8250 1550 8250
Wire Wire Line
	2450 8250 2450 8300
Wire Wire Line
	2300 8300 2300 8250
Connection ~ 2300 8250
Wire Wire Line
	2300 8250 2450 8250
Wire Wire Line
	2150 8300 2150 8250
Connection ~ 2150 8250
Wire Wire Line
	2150 8250 2300 8250
Wire Wire Line
	2000 8300 2000 8250
Connection ~ 2000 8250
Wire Wire Line
	2000 8250 2150 8250
Wire Wire Line
	1850 8300 1850 8250
Connection ~ 1850 8250
Wire Wire Line
	1850 8250 1900 8250
Wire Wire Line
	1700 8300 1700 8250
Connection ~ 1700 8250
Wire Wire Line
	1700 8250 1850 8250
Wire Wire Line
	1550 8300 1550 8250
Connection ~ 1550 8250
Wire Wire Line
	1550 8250 1700 8250
Wire Wire Line
	1900 8150 1900 8250
Connection ~ 1900 8250
Wire Wire Line
	1900 8250 2000 8250
Wire Wire Line
	10900 1850 10950 1850
Wire Wire Line
	10950 1850 10950 2000
Connection ~ 10950 2000
Wire Wire Line
	10950 2000 12950 2000
Wire Wire Line
	10950 1150 10950 1000
Wire Wire Line
	10950 1000 10900 1000
Connection ~ 10950 1150
Wire Wire Line
	10950 2650 11000 2650
Wire Wire Line
	11000 2650 11000 2750
Connection ~ 11000 2750
Wire Wire Line
	11000 2750 12950 2750
Wire Wire Line
	10950 3400 11000 3400
Wire Wire Line
	11000 3400 11000 3500
Connection ~ 11000 3500
Wire Wire Line
	11000 3500 12950 3500
Wire Wire Line
	10950 4100 11000 4100
Wire Wire Line
	11000 4100 11000 4200
Connection ~ 11000 4200
Wire Wire Line
	11000 4200 12950 4200
Wire Wire Line
	10900 4750 11000 4750
Wire Wire Line
	11000 4750 11000 4900
Connection ~ 11000 4900
Wire Wire Line
	11000 4900 12950 4900
Wire Wire Line
	10900 5450 11000 5450
Wire Wire Line
	11000 5450 11000 5600
Connection ~ 11000 5600
Wire Wire Line
	11000 5600 12950 5600
Wire Wire Line
	10850 6150 10950 6150
Wire Wire Line
	10950 6150 10950 6300
Connection ~ 10950 6300
Wire Wire Line
	10950 6300 9200 6300
Text GLabel 6050 4650 2    50   Input ~ 0
WS28XX_drive
Wire Wire Line
	5500 4650 5750 4650
Text GLabel 1300 8950 1    50   Input ~ 0
WS28XX_drive
Wire Wire Line
	1300 8950 1300 9000
Connection ~ 1300 9000
Wire Wire Line
	1300 9000 2450 9000
$Comp
L Device:Jumper_NC_Small JP2
U 1 1 615E5E77
P 5850 4650
F 0 "JP2" H 5850 4771 50  0000 C CNN
F 1 "Jumper_NC_Small" H 5850 4771 50  0001 C CNN
F 2 "Jumper:SolderJumper-2_P1.3mm_Open_RoundedPad1.0x1.5mm" H 5850 4650 50  0001 C CNN
F 3 "~" H 5850 4650 50  0001 C CNN
	1    5850 4650
	1    0    0    -1  
$EndComp
Wire Wire Line
	5950 4650 6050 4650
Wire Wire Line
	4100 9700 4850 9700
Wire Wire Line
	4850 9600 4100 9600
Wire Wire Line
	4100 9500 4850 9500
Wire Wire Line
	4850 9400 4100 9400
Wire Wire Line
	4100 9300 4850 9300
Wire Wire Line
	4850 9200 4100 9200
Wire Wire Line
	4100 9100 4850 9100
Wire Wire Line
	4850 9000 4100 9000
$Comp
L power:+12V #PWR037
U 1 1 616B3E1B
P 4800 8850
F 0 "#PWR037" H 4800 8700 50  0001 C CNN
F 1 "+12V" H 4815 9023 50  0000 C CNN
F 2 "" H 4800 8850 50  0001 C CNN
F 3 "" H 4800 8850 50  0001 C CNN
	1    4800 8850
	1    0    0    -1  
$EndComp
Wire Wire Line
	4850 8900 4800 8900
Wire Wire Line
	4800 8900 4800 8850
Wire Wire Line
	4850 9800 4350 9800
Wire Wire Line
	4350 9800 4350 9950
Wire Wire Line
	4350 9950 3600 9950
Connection ~ 3600 9950
Wire Wire Line
	3600 9950 3600 9900
$Comp
L power:+12V #PWR035
U 1 1 616E81C3
P 1100 8800
F 0 "#PWR035" H 1100 8650 50  0001 C CNN
F 1 "+12V" H 1115 8973 50  0000 C CNN
F 2 "" H 1100 8800 50  0001 C CNN
F 3 "" H 1100 8800 50  0001 C CNN
	1    1100 8800
	1    0    0    -1  
$EndComp
Wire Wire Line
	1050 8900 1100 8900
Wire Wire Line
	1100 8900 1100 8800
$Comp
L Regulator_Linear:LD1117S50TR_SOT223 U18
U 1 1 6172FA12
P 2000 6450
F 0 "U18" H 2000 6692 50  0000 C CNN
F 1 "LD1117S50TR_SOT223" H 2000 6601 50  0000 C CNN
F 2 "Package_TO_SOT_SMD:SOT-223-3_TabPin2" H 2000 6650 50  0001 C CNN
F 3 "http://www.st.com/st-web-ui/static/active/en/resource/technical/document/datasheet/CD00000544.pdf" H 2100 6200 50  0001 C CNN
	1    2000 6450
	1    0    0    -1  
$EndComp
$Comp
L Device:C C3
U 1 1 61733763
P 3000 6600
F 0 "C3" H 3115 6646 50  0000 L CNN
F 1 "1uF" H 3115 6555 50  0000 L CNN
F 2 "Capacitor_SMD:C_0805_2012Metric" H 3038 6450 50  0001 C CNN
F 3 "~" H 3000 6600 50  0001 C CNN
	1    3000 6600
	1    0    0    -1  
$EndComp
$Comp
L Device:C C4
U 1 1 61733DE9
P 4150 6600
F 0 "C4" H 4265 6646 50  0000 L CNN
F 1 "4.7uF" H 4265 6555 50  0000 L CNN
F 2 "Capacitor_SMD:C_0805_2012Metric" H 4188 6450 50  0001 C CNN
F 3 "~" H 4150 6600 50  0001 C CNN
	1    4150 6600
	1    0    0    -1  
$EndComp
$Comp
L Device:C C1
U 1 1 61734389
P 1400 6600
F 0 "C1" H 1515 6646 50  0000 L CNN
F 1 "1uF" H 1515 6555 50  0000 L CNN
F 2 "Capacitor_SMD:C_0805_2012Metric" H 1438 6450 50  0001 C CNN
F 3 "~" H 1400 6600 50  0001 C CNN
	1    1400 6600
	1    0    0    -1  
$EndComp
$Comp
L Device:C C2
U 1 1 61734A74
P 2550 6600
F 0 "C2" H 2665 6646 50  0000 L CNN
F 1 "4.7uF" H 2665 6555 50  0000 L CNN
F 2 "Capacitor_SMD:C_0805_2012Metric" H 2588 6450 50  0001 C CNN
F 3 "~" H 2550 6600 50  0001 C CNN
	1    2550 6600
	1    0    0    -1  
$EndComp
Wire Wire Line
	3000 6450 3300 6450
Wire Wire Line
	3900 6450 4150 6450
Wire Wire Line
	2300 6450 2550 6450
Wire Wire Line
	1400 6450 1700 6450
Wire Wire Line
	1400 6750 1400 6800
Wire Wire Line
	1400 6800 2000 6800
Wire Wire Line
	2000 6800 2000 6750
Wire Wire Line
	2550 6750 2550 6800
Wire Wire Line
	2550 6800 2000 6800
Connection ~ 2000 6800
Wire Wire Line
	4150 6750 4150 6800
Wire Wire Line
	4150 6800 3600 6800
Wire Wire Line
	3600 6800 3600 6750
Wire Wire Line
	3000 6750 3000 6800
Wire Wire Line
	3000 6800 3600 6800
Connection ~ 3600 6800
$Comp
L power:GND #PWR039
U 1 1 618346DB
P 1100 6850
F 0 "#PWR039" H 1100 6600 50  0001 C CNN
F 1 "GND" H 1200 6750 50  0000 C CNN
F 2 "" H 1100 6850 50  0001 C CNN
F 3 "" H 1100 6850 50  0001 C CNN
	1    1100 6850
	1    0    0    -1  
$EndComp
$Comp
L power:+12V #PWR038
U 1 1 618B8701
P 1100 6400
F 0 "#PWR038" H 1100 6250 50  0001 C CNN
F 1 "+12V" H 1115 6573 50  0000 C CNN
F 2 "" H 1100 6400 50  0001 C CNN
F 3 "" H 1100 6400 50  0001 C CNN
	1    1100 6400
	1    0    0    -1  
$EndComp
$Comp
L Regulator_Linear:LD1117S33TR_SOT223 U19
U 1 1 618B9D9F
P 3600 6450
F 0 "U19" H 3600 6692 50  0000 C CNN
F 1 "LD1117S33TR_SOT223" H 3600 6601 50  0000 C CNN
F 2 "Package_TO_SOT_SMD:SOT-223-3_TabPin2" H 3600 6650 50  0001 C CNN
F 3 "http://www.st.com/st-web-ui/static/active/en/resource/technical/document/datasheet/CD00000544.pdf" H 3700 6200 50  0001 C CNN
	1    3600 6450
	1    0    0    -1  
$EndComp
Connection ~ 2550 6450
Wire Wire Line
	3000 6450 2750 6450
Connection ~ 3000 6450
Wire Wire Line
	1400 6450 1100 6450
Wire Wire Line
	1100 6450 1100 6400
Connection ~ 1400 6450
Wire Wire Line
	1100 6850 1100 6800
Wire Wire Line
	1100 6800 1400 6800
Connection ~ 1400 6800
Wire Wire Line
	2550 6800 3000 6800
Connection ~ 2550 6800
Connection ~ 3000 6800
$Comp
L power:+3.3V #PWR041
U 1 1 619BB2A4
P 4150 6400
F 0 "#PWR041" H 4150 6250 50  0001 C CNN
F 1 "+3.3V" H 4250 6450 50  0000 C CNN
F 2 "" H 4150 6400 50  0001 C CNN
F 3 "" H 4150 6400 50  0001 C CNN
	1    4150 6400
	1    0    0    -1  
$EndComp
$Comp
L power:+5V #PWR040
U 1 1 619BBC4B
P 2750 6400
F 0 "#PWR040" H 2750 6250 50  0001 C CNN
F 1 "+5V" H 2800 6550 50  0000 C CNN
F 2 "" H 2750 6400 50  0001 C CNN
F 3 "" H 2750 6400 50  0001 C CNN
	1    2750 6400
	1    0    0    -1  
$EndComp
Wire Wire Line
	2750 6400 2750 6450
Connection ~ 2750 6450
Wire Wire Line
	2750 6450 2550 6450
Wire Wire Line
	4150 6400 4150 6450
Connection ~ 4150 6450
Wire Wire Line
	3600 9950 2800 9950
Wire Wire Line
	2800 9800 2800 9950
Text Notes 2300 6000 0    50   ~ 0
Power Supply
Text Notes 2500 7600 0    50   ~ 0
Logic Level WS28xx Driver
$Comp
L Relay_SolidState:34.81-8240 U10
U 1 1 61B35EED
P 14250 950
F 0 "U10" H 14250 1275 50  0000 C CNN
F 1 "34.81-8240" H 14250 1184 50  0000 C CNN
F 2 "OptoDevice:Finder_34.81" H 14050 750 50  0001 L CIN
F 3 "https://gfinder.findernet.com/public/attachments/34/EN/S34USAEN.pdf" H 14250 950 50  0001 L CNN
	1    14250 950 
	1    0    0    -1  
$EndComp
$Comp
L Relay_SolidState:34.81-8240 U11
U 1 1 61B36D9A
P 14250 1700
F 0 "U11" H 14250 2025 50  0000 C CNN
F 1 "34.81-8240" H 14250 1934 50  0000 C CNN
F 2 "OptoDevice:Finder_34.81" H 14050 1500 50  0001 L CIN
F 3 "https://gfinder.findernet.com/public/attachments/34/EN/S34USAEN.pdf" H 14250 1700 50  0001 L CNN
	1    14250 1700
	1    0    0    -1  
$EndComp
$Comp
L Relay_SolidState:34.81-8240 U12
U 1 1 61B37991
P 14250 2550
F 0 "U12" H 14250 2875 50  0000 C CNN
F 1 "34.81-8240" H 14250 2784 50  0000 C CNN
F 2 "OptoDevice:Finder_34.81" H 14050 2350 50  0001 L CIN
F 3 "https://gfinder.findernet.com/public/attachments/34/EN/S34USAEN.pdf" H 14250 2550 50  0001 L CNN
	1    14250 2550
	1    0    0    -1  
$EndComp
$Comp
L Relay_SolidState:34.81-8240 U13
U 1 1 61B38982
P 14250 3300
F 0 "U13" H 14250 3625 50  0000 C CNN
F 1 "34.81-8240" H 14250 3534 50  0000 C CNN
F 2 "OptoDevice:Finder_34.81" H 14050 3100 50  0001 L CIN
F 3 "https://gfinder.findernet.com/public/attachments/34/EN/S34USAEN.pdf" H 14250 3300 50  0001 L CNN
	1    14250 3300
	1    0    0    -1  
$EndComp
$Comp
L Relay_SolidState:34.81-8240 U14
U 1 1 61B394E4
P 14250 4000
F 0 "U14" H 14250 4325 50  0000 C CNN
F 1 "34.81-8240" H 14250 4234 50  0000 C CNN
F 2 "OptoDevice:Finder_34.81" H 14050 3800 50  0001 L CIN
F 3 "https://gfinder.findernet.com/public/attachments/34/EN/S34USAEN.pdf" H 14250 4000 50  0001 L CNN
	1    14250 4000
	1    0    0    -1  
$EndComp
$Comp
L Relay_SolidState:34.81-8240 U15
U 1 1 61B3A170
P 14250 4700
F 0 "U15" H 14250 5025 50  0000 C CNN
F 1 "34.81-8240" H 14250 4934 50  0000 C CNN
F 2 "OptoDevice:Finder_34.81" H 14050 4500 50  0001 L CIN
F 3 "https://gfinder.findernet.com/public/attachments/34/EN/S34USAEN.pdf" H 14250 4700 50  0001 L CNN
	1    14250 4700
	1    0    0    -1  
$EndComp
$Comp
L Relay_SolidState:34.81-8240 U16
U 1 1 61B3AEFE
P 14250 5400
F 0 "U16" H 14250 5725 50  0000 C CNN
F 1 "34.81-8240" H 14250 5634 50  0000 C CNN
F 2 "OptoDevice:Finder_34.81" H 14050 5200 50  0001 L CIN
F 3 "https://gfinder.findernet.com/public/attachments/34/EN/S34USAEN.pdf" H 14250 5400 50  0001 L CNN
	1    14250 5400
	1    0    0    -1  
$EndComp
$Comp
L Relay_SolidState:34.81-8240 U17
U 1 1 61B3BAAD
P 14250 6100
F 0 "U17" H 14250 6425 50  0000 C CNN
F 1 "34.81-8240" H 14250 6334 50  0000 C CNN
F 2 "OptoDevice:Finder_34.81" H 14050 5900 50  0001 L CIN
F 3 "https://gfinder.findernet.com/public/attachments/34/EN/S34USAEN.pdf" H 14250 6100 50  0001 L CNN
	1    14250 6100
	1    0    0    -1  
$EndComp
$Comp
L power:GND #PWR019
U 1 1 5FD9CFB5
P 13600 1150
F 0 "#PWR019" H 13600 900 50  0001 C CNN
F 1 "GND" H 13605 977 50  0000 C CNN
F 2 "" H 13600 1150 50  0001 C CNN
F 3 "" H 13600 1150 50  0001 C CNN
	1    13600 1150
	1    0    0    -1  
$EndComp
Wire Wire Line
	13550 1150 13600 1150
Wire Wire Line
	10950 1150 12950 1150
Wire Wire Line
	12950 950  12900 950 
Wire Wire Line
	12700 950  12600 950 
$Comp
L power:+5V #PWR011
U 1 1 5FD9FD9C
P 12600 950
F 0 "#PWR011" H 12600 800 50  0001 C CNN
F 1 "+5V" H 12615 1123 50  0000 C CNN
F 2 "" H 12600 950 50  0001 C CNN
F 3 "" H 12600 950 50  0001 C CNN
	1    12600 950 
	1    0    0    -1  
$EndComp
$Comp
L Device:R_Small_US R1
U 1 1 5FD83B34
P 12800 950
F 0 "R1" V 12595 950 50  0000 C CNN
F 1 "1k" V 12686 950 50  0000 C CNN
F 2 "Resistor_SMD:R_0805_2012Metric" H 12800 950 50  0001 C CNN
F 3 "~" H 12800 950 50  0001 C CNN
	1    12800 950 
	0    1    1    0   
$EndComp
$Comp
L Isolator:TLP291 U2
U 1 1 61BAEAC1
P 13250 1050
F 0 "U2" H 13250 1375 50  0000 C CNN
F 1 "TLP291" H 13250 1284 50  0000 C CNN
F 2 "Package_SO:SOIC-4_4.55x2.6mm_P1.27mm" H 13050 850 50  0001 L CIN
F 3 "https://toshiba.semicon-storage.com/info/docget.jsp?did=12884&prodName=TLP291" H 13250 1050 50  0001 L CNN
	1    13250 1050
	1    0    0    -1  
$EndComp
$Comp
L Isolator:TLP291 U3
U 1 1 61C417DD
P 13250 1900
F 0 "U3" H 13250 2225 50  0000 C CNN
F 1 "TLP291" H 13250 2134 50  0000 C CNN
F 2 "Package_SO:SOIC-4_4.55x2.6mm_P1.27mm" H 13050 1700 50  0001 L CIN
F 3 "https://toshiba.semicon-storage.com/info/docget.jsp?did=12884&prodName=TLP291" H 13250 1900 50  0001 L CNN
	1    13250 1900
	1    0    0    -1  
$EndComp
$Comp
L Isolator:TLP291 U4
U 1 1 61C4225E
P 13250 2650
F 0 "U4" H 13250 2975 50  0000 C CNN
F 1 "TLP291" H 13250 2884 50  0000 C CNN
F 2 "Package_SO:SOIC-4_4.55x2.6mm_P1.27mm" H 13050 2450 50  0001 L CIN
F 3 "https://toshiba.semicon-storage.com/info/docget.jsp?did=12884&prodName=TLP291" H 13250 2650 50  0001 L CNN
	1    13250 2650
	1    0    0    -1  
$EndComp
$Comp
L Isolator:TLP291 U5
U 1 1 61C42C54
P 13250 3400
F 0 "U5" H 13250 3725 50  0000 C CNN
F 1 "TLP291" H 13250 3634 50  0000 C CNN
F 2 "Package_SO:SOIC-4_4.55x2.6mm_P1.27mm" H 13050 3200 50  0001 L CIN
F 3 "https://toshiba.semicon-storage.com/info/docget.jsp?did=12884&prodName=TLP291" H 13250 3400 50  0001 L CNN
	1    13250 3400
	1    0    0    -1  
$EndComp
$Comp
L Isolator:TLP291 U6
U 1 1 61C43809
P 13250 4100
F 0 "U6" H 13250 4425 50  0000 C CNN
F 1 "TLP291" H 13250 4334 50  0000 C CNN
F 2 "Package_SO:SOIC-4_4.55x2.6mm_P1.27mm" H 13050 3900 50  0001 L CIN
F 3 "https://toshiba.semicon-storage.com/info/docget.jsp?did=12884&prodName=TLP291" H 13250 4100 50  0001 L CNN
	1    13250 4100
	1    0    0    -1  
$EndComp
$Comp
L Isolator:TLP291 U7
U 1 1 61C44178
P 13250 4800
F 0 "U7" H 13250 5125 50  0000 C CNN
F 1 "TLP291" H 13250 5034 50  0000 C CNN
F 2 "Package_SO:SOIC-4_4.55x2.6mm_P1.27mm" H 13050 4600 50  0001 L CIN
F 3 "https://toshiba.semicon-storage.com/info/docget.jsp?did=12884&prodName=TLP291" H 13250 4800 50  0001 L CNN
	1    13250 4800
	1    0    0    -1  
$EndComp
$Comp
L Isolator:TLP291 U8
U 1 1 61C451C6
P 13250 5500
F 0 "U8" H 13250 5825 50  0000 C CNN
F 1 "TLP291" H 13250 5734 50  0000 C CNN
F 2 "Package_SO:SOIC-4_4.55x2.6mm_P1.27mm" H 13050 5300 50  0001 L CIN
F 3 "https://toshiba.semicon-storage.com/info/docget.jsp?did=12884&prodName=TLP291" H 13250 5500 50  0001 L CNN
	1    13250 5500
	1    0    0    -1  
$EndComp
$Comp
L Isolator:TLP291 U9
U 1 1 61C45896
P 13250 6200
F 0 "U9" H 13250 6525 50  0000 C CNN
F 1 "TLP291" H 13250 6434 50  0000 C CNN
F 2 "Package_SO:SOIC-4_4.55x2.6mm_P1.27mm" H 13050 6000 50  0001 L CIN
F 3 "https://toshiba.semicon-storage.com/info/docget.jsp?did=12884&prodName=TLP291" H 13250 6200 50  0001 L CNN
	1    13250 6200
	1    0    0    -1  
$EndComp
Wire Wire Line
	13550 6100 13550 6200
Wire Wire Line
	13550 6200 13950 6200
Wire Wire Line
	13550 5400 13550 5500
Wire Wire Line
	13550 4700 13550 4800
Wire Wire Line
	13550 4000 13550 4100
Wire Wire Line
	13550 3300 13550 3400
Wire Wire Line
	13550 2550 13550 2650
Wire Wire Line
	13550 2650 13950 2650
Wire Wire Line
	13550 950  13550 1050
Wire Wire Line
	2750 4150 4000 4150
Wire Wire Line
	1150 3050 1150 2600
Wire Wire Line
	1150 3050 2250 3050
Wire Wire Line
	1050 2600 1050 3150
Wire Wire Line
	1050 3150 2250 3150
Wire Wire Line
	1350 3250 2250 3250
Wire Wire Line
	1350 4350 2250 4350
Wire Wire Line
	1350 4450 2250 4450
Wire Wire Line
	1000 4250 1000 4050
Wire Wire Line
	1000 4250 2250 4250
Wire Wire Line
	4000 4250 4000 4300
Wire Wire Line
	4000 4300 4150 4300
Wire Wire Line
	2750 4250 4000 4250
$Comp
L power:+5V #PWR047
U 1 1 60603A54
P 7750 2300
F 0 "#PWR047" H 7750 2150 50  0001 C CNN
F 1 "+5V" H 7750 2440 50  0000 C CNN
F 2 "" H 7750 2300 50  0000 C CNN
F 3 "" H 7750 2300 50  0000 C CNN
	1    7750 2300
	1    0    0    -1  
$EndComp
Wire Wire Line
	7750 2300 7750 2450
Wire Wire Line
	7750 2450 7550 2450
Wire Wire Line
	7750 2550 7550 2550
Connection ~ 7750 2450
$Comp
L power:GND #PWR046
U 1 1 60603A5E
P 7650 4500
F 0 "#PWR046" H 7650 4250 50  0001 C CNN
F 1 "GND" H 7650 4350 50  0000 C CNN
F 2 "" H 7650 4500 50  0000 C CNN
F 3 "" H 7650 4500 50  0000 C CNN
	1    7650 4500
	1    0    0    -1  
$EndComp
Wire Wire Line
	7650 2650 7650 3050
Wire Wire Line
	7650 4050 7550 4050
Wire Wire Line
	7650 3850 7550 3850
Connection ~ 7650 4050
Wire Wire Line
	7650 3350 7550 3350
Connection ~ 7650 3850
Wire Wire Line
	7650 3050 7550 3050
Connection ~ 7650 3350
$Comp
L power:GND #PWR045
U 1 1 60603A6C
P 6950 4500
F 0 "#PWR045" H 6950 4250 50  0001 C CNN
F 1 "GND" H 6950 4350 50  0000 C CNN
F 2 "" H 6950 4500 50  0000 C CNN
F 3 "" H 6950 4500 50  0000 C CNN
	1    6950 4500
	1    0    0    -1  
$EndComp
Wire Wire Line
	6950 4350 7050 4350
Wire Wire Line
	6950 2850 6950 3650
Wire Wire Line
	6950 3650 7050 3650
Connection ~ 6950 4350
Connection ~ 6850 2450
Wire Wire Line
	6850 3250 7050 3250
Wire Wire Line
	6850 2450 7050 2450
Wire Wire Line
	6850 2300 6850 2450
$Comp
L power:+3.3V #PWR044
U 1 1 60603A7A
P 6850 2300
F 0 "#PWR044" H 6850 2150 50  0001 C CNN
F 1 "+3.3V" H 6850 2440 50  0000 C CNN
F 2 "" H 6850 2300 50  0000 C CNN
F 3 "" H 6850 2300 50  0000 C CNN
	1    6850 2300
	1    0    0    -1  
$EndComp
Wire Wire Line
	6950 2850 7050 2850
Connection ~ 6950 3650
Wire Wire Line
	7050 2950 6150 2950
Wire Wire Line
	6150 3050 7050 3050
Wire Wire Line
	6150 3150 7050 3150
Wire Wire Line
	7050 3350 6150 3350
Wire Wire Line
	6150 3450 7050 3450
Wire Wire Line
	6150 3550 7050 3550
Wire Wire Line
	7050 4050 6150 4050
Wire Wire Line
	6150 4150 7050 4150
Wire Wire Line
	6150 4250 7050 4250
Wire Wire Line
	7550 4150 8500 4150
Wire Wire Line
	7550 4250 8500 4250
Wire Wire Line
	7550 3450 8500 3450
Wire Wire Line
	7550 3150 8500 3150
Wire Wire Line
	7550 3250 8500 3250
Wire Wire Line
	7550 2850 8500 2850
Wire Wire Line
	7550 2950 8500 2950
Wire Wire Line
	7550 2750 8500 2750
Wire Wire Line
	7550 3950 8500 3950
Text Label 6150 2550 0    50   ~ 0
GPIO2(SDA1)b
Text Label 6150 2650 0    50   ~ 0
GPIO3(SCL1)b
Text Label 6150 2750 0    50   ~ 0
GPIO4(GCLK)b
Text Label 6150 2950 0    50   ~ 0
GPIO17(GEN0)b
Text Label 6150 3050 0    50   ~ 0
GPIO27(GEN2)b
Text Label 6150 3150 0    50   ~ 0
GPIO22(GEN3)b
Text Label 6150 3350 0    50   ~ 0
GPIO10(SPI0_MOSI)b
Text Label 6150 3450 0    50   ~ 0
GPIO9(SPI0_MISO)b
Text Label 6150 3550 0    50   ~ 0
GPIO11(SPI0_SCK)b
Text Label 6150 3750 0    50   ~ 0
ID_SDb
Text Label 6150 3850 0    50   ~ 0
GPIO5b
Text Label 6150 3950 0    50   ~ 0
GPIO6b
Text Label 6150 4050 0    50   ~ 0
GPIO13(PWM1)b
Text Label 6150 4150 0    50   ~ 0
GPIO19(SPI1_MISO)b
Text Label 6150 4250 0    50   ~ 0
GPIO26b
Text Label 8500 4250 2    50   ~ 0
GPIO20(SPI1_MOSI)b
Text Label 8500 4150 2    50   ~ 0
GPIO16b
Text Label 8500 3950 2    50   ~ 0
GPIO12(PWM0)b
Text Label 8500 3750 2    50   ~ 0
ID_SCb
Text Label 8500 3650 2    50   ~ 0
GPIO7(SPI1_CE_N)b
Text Label 8500 3550 2    50   ~ 0
GPIO8(SPI0_CE_N)b
Text Label 8500 3450 2    50   ~ 0
GPIO25(GEN6)b
Text Label 8500 3250 2    50   ~ 0
GPIO24(GEN5)b
Text Label 8500 3150 2    50   ~ 0
GPIO23(GEN4)b
Text Label 8500 2950 2    50   ~ 0
GPIO18(GEN1)(PWM0)b
Text Label 8500 2850 2    50   ~ 0
GPIO15(RXD0)b
Text Label 8500 2750 2    50   ~ 0
GPIO14(TXD0)b
Wire Wire Line
	7650 2650 7550 2650
Connection ~ 7650 3050
$Comp
L Connector_Generic:Conn_02x20_Odd_Even P2
U 1 1 60603AB1
P 7250 3350
F 0 "P2" H 7300 4467 50  0000 C CNN
F 1 "Conn_02x20_Odd_Even" H 7300 4376 50  0000 C CNN
F 2 "Connector_PinSocket_2.54mm:PinSocket_2x20_P2.54mm_Vertical" H 2400 2400 50  0001 C CNN
F 3 "" H 2400 2400 50  0001 C CNN
	1    7250 3350
	1    0    0    -1  
$EndComp
Wire Wire Line
	7550 4350 8500 4350
Text Label 8500 4350 2    50   ~ 0
GPIO21(SPI1_SCK)b
Wire Wire Line
	7750 2450 7750 2550
Wire Wire Line
	7650 4050 7650 4500
Wire Wire Line
	7650 3850 7650 4050
Wire Wire Line
	7650 3350 7650 3850
Wire Wire Line
	6950 4350 6950 4500
Wire Wire Line
	6850 2450 6850 3250
Wire Wire Line
	6950 3650 6950 4350
Wire Wire Line
	7650 3050 7650 3350
Wire Wire Line
	7550 3650 8500 3650
Wire Wire Line
	7550 3550 8800 3550
Wire Wire Line
	7550 3750 8500 3750
Wire Wire Line
	5350 3950 7050 3950
Wire Wire Line
	5350 3950 5350 2400
Wire Wire Line
	5450 2400 5450 3850
Wire Wire Line
	5450 3850 7050 3850
Wire Wire Line
	5550 2400 5550 3750
Wire Wire Line
	5550 3750 7050 3750
Wire Wire Line
	7050 2550 6150 2550
Wire Wire Line
	7050 2650 6150 2650
Wire Wire Line
	7050 2750 6150 2750
Wire Wire Line
	8800 3550 8800 3400
Wire Wire Line
	2750 4050 3700 4050
Wire Wire Line
	1250 800  2500 800 
Wire Wire Line
	2500 800  2500 1150
Wire Wire Line
	2500 1150 10950 1150
Wire Wire Line
	1250 900  2450 900 
Wire Wire Line
	2450 900  2450 1250
Wire Wire Line
	2450 1250 9800 1250
$Comp
L Connector:Screw_Terminal_01x06 J3
U 1 1 60A5C677
P 1050 900
F 0 "J3" H 968 1317 50  0000 C CNN
F 1 "Screw_Terminal_01x06" V 1250 800 50  0000 C CNN
F 2 "TerminalBlock_TE-Connectivity:TerminalBlock_TE_282834-6_1x06_P2.54mm_Horizontal" H 1050 900 50  0001 C CNN
F 3 "~" H 1050 900 50  0001 C CNN
	1    1050 900 
	-1   0    0    -1  
$EndComp
$Comp
L Connector:Screw_Terminal_01x06 J1
U 1 1 60A5D48E
P 1000 1750
F 0 "J1" H 918 2167 50  0000 C CNN
F 1 "Screw_Terminal_01x06" V 1200 1600 50  0000 C CNN
F 2 "TerminalBlock_TE-Connectivity:TerminalBlock_TE_282834-6_1x06_P2.54mm_Horizontal" H 1000 1750 50  0001 C CNN
F 3 "~" H 1000 1750 50  0001 C CNN
	1    1000 1750
	-1   0    0    -1  
$EndComp
Wire Wire Line
	1250 700  1600 700 
Wire Wire Line
	1600 700  1600 650 
Wire Wire Line
	1250 1000 2350 1000
Wire Wire Line
	2350 1000 2350 1350
Wire Wire Line
	2350 1350 9700 1350
Wire Wire Line
	1250 1100 2250 1100
Wire Wire Line
	2250 1100 2250 1450
Wire Wire Line
	2250 1450 9600 1450
$Comp
L power:GND #PWR043
U 1 1 60AF9D20
P 1750 1200
F 0 "#PWR043" H 1750 950 50  0001 C CNN
F 1 "GND" H 1755 1027 50  0000 C CNN
F 2 "" H 1750 1200 50  0001 C CNN
F 3 "" H 1750 1200 50  0001 C CNN
	1    1750 1200
	1    0    0    -1  
$EndComp
Wire Wire Line
	1200 1950 1800 1950
Wire Wire Line
	1800 1950 1800 1850
Wire Wire Line
	1800 1850 9200 1850
Wire Wire Line
	1200 1850 1700 1850
Wire Wire Line
	1700 1850 1700 1750
Wire Wire Line
	1700 1750 9300 1750
Wire Wire Line
	1200 1750 1600 1750
Wire Wire Line
	1600 1750 1600 1650
Wire Wire Line
	1600 1650 9400 1650
Wire Wire Line
	1200 1650 1550 1650
Wire Wire Line
	1550 1650 1550 1550
Wire Wire Line
	1550 1550 9500 1550
$Comp
L power:+5V #PWR042
U 1 1 60C6C002
P 1350 1450
F 0 "#PWR042" H 1350 1300 50  0001 C CNN
F 1 "+5V" H 1365 1623 50  0000 C CNN
F 2 "" H 1350 1450 50  0001 C CNN
F 3 "" H 1350 1450 50  0001 C CNN
	1    1350 1450
	1    0    0    -1  
$EndComp
Wire Wire Line
	1250 1200 1750 1200
Wire Wire Line
	1200 1550 1350 1550
Wire Wire Line
	1350 1550 1350 1450
Wire Wire Line
	1200 2050 2100 2050
$EndSCHEMATC
